<!DOCTYPE svg PUBLIC "-//W3C//DTD SVG 20010904//EN" "http://www.w3.org/TR/2001/REC-SVG-20010904/DTD/svg10.dtd">
<svg version="1.0" xmlns="http://www.w3.org/2000/svg" width="512px" height="512px" viewBox="0 0 5120 5120" preserveAspectRatio="xMidYMid meet">
<g id="layer101" fill="#000000" stroke="none">
 <path d="M2572 5109 c-87 -15 -202 -57 -277 -101 -58 -34 -163 -134 -613 -582 -557 -555 -602 -606 -656 -734 -105 -250 -76 -518 82 -762 39 -59 907 -940 1057 -1071 98 -87 199 -144 315 -181 64 -20 96 -23 220 -23 124 0 156 3 220 23 106 34 197 82 281 151 41 32 295 281 565 553 521 522 554 560 613 710 98 244 61 538 -93 752 -64 88 -1088 1106 -1157 1149 -66 42 -152 79 -234 101 -73 20 -251 28 -323 15z m-358 -1135 c124 -124 269 -188 457 -201 145 -10 272 23 539 137 142 61 273 110 294 110 6 0 -23 -17 -64 -37 -108 -55 -213 -161 -268 -273 -115 -233 -113 -435 8 -725 72 -173 138 -339 145 -365 3 -14 -11 4 -31 40 -117 203 -356 334 -609 334 -137 -1 -237 -28 -495 -139 -126 -54 -292 -115 -313 -115 -5 0 28 19 74 42 218 108 358 349 359 614 0 123 -31 243 -115 442 -70 164 -135 335 -135 354 0 6 16 -23 37 -63 26 -54 58 -96 117 -155z"/>
 <path d="M3450 1748 c-126 -34 -144 -216 -26 -272 133 -63 264 71 197 202 -31 60 -101 89 -171 70z m112 -55 c73 -64 43 -177 -52 -198 -59 -13 -130 46 -130 110 0 37 26 82 58 100 34 19 96 13 124 -12z"/>
 <path d="M3420 1610 l0 -80 53 0 c72 0 96 29 65 79 -9 14 -8 23 5 42 22 31 21 39 -2 39 -11 0 -28 -13 -38 -30 -9 -16 -23 -30 -30 -30 -8 0 -13 12 -13 30 0 23 -4 30 -20 30 -18 0 -20 -7 -20 -80z m90 -35 c0 -9 -9 -15 -25 -15 -16 0 -25 6 -25 15 0 9 9 15 25 15 16 0 25 -6 25 -15z"/>
 <path d="M2621 1572 c-22 -54 -158 -223 -307 -384 -135 -145 -444 -448 -444 -435 0 3 39 47 86 99 261 282 399 484 438 639 25 103 26 102 -41 94 -32 -4 -110 -20 -173 -37 -404 -103 -733 -372 -919 -753 -107 -220 -162 -427 -187 -702 l-6 -73 89 0 c186 0 433 47 608 117 503 199 798 631 870 1278 l7 60 23 -90 c67 -262 169 -450 324 -597 171 -162 421 -257 651 -246 l65 3 -2 103 c-5 349 -192 636 -523 806 -147 75 -309 122 -491 140 -55 6 -57 5 -68 -22z"/>
 </g>
<g id="layer102" fill="#980200" stroke="none">
 <path d="M2572 5109 c-87 -15 -202 -57 -277 -101 -58 -34 -163 -134 -613 -582 -557 -555 -602 -606 -656 -734 -105 -250 -76 -518 82 -762 39 -59 907 -940 1057 -1071 98 -87 199 -144 315 -181 64 -20 96 -23 220 -23 124 0 156 3 220 23 106 34 197 82 281 151 41 32 295 281 565 553 521 522 554 560 613 710 98 244 61 538 -93 752 -64 88 -1088 1106 -1157 1149 -66 42 -152 79 -234 101 -73 20 -251 28 -323 15z m-358 -1135 c124 -124 269 -188 457 -201 145 -10 272 23 539 137 142 61 273 110 294 110 6 0 -23 -17 -64 -37 -108 -55 -213 -161 -268 -273 -115 -233 -113 -435 8 -725 72 -173 138 -339 145 -365 3 -14 -11 4 -31 40 -117 203 -356 334 -609 334 -137 -1 -237 -28 -495 -139 -126 -54 -292 -115 -313 -115 -5 0 28 19 74 42 218 108 358 349 359 614 0 123 -31 243 -115 442 -70 164 -135 335 -135 354 0 6 16 -23 37 -63 26 -54 58 -96 117 -155z"/>
 <path d="M2621 1572 c-22 -54 -158 -223 -307 -384 -135 -145 -444 -448 -444 -435 0 3 39 47 86 99 261 282 399 484 438 639 25 103 26 102 -41 94 -32 -4 -110 -20 -173 -37 -404 -103 -733 -372 -919 -753 -107 -220 -162 -427 -187 -702 l-6 -73 89 0 c186 0 433 47 608 117 503 199 798 631 870 1278 l7 60 23 -90 c67 -262 169 -450 324 -597 171 -162 421 -257 651 -246 l65 3 -2 103 c-5 349 -192 636 -523 806 -147 75 -309 122 -491 140 -55 6 -57 5 -68 -22z"/>
 </g>
<g id="layer103" fill="#0bce0b" stroke="none">
 <path d="M2580 5110 c-25 -4 -76 -20 -115 -35 -38 -15 -78 -27 -87 -28 -9 -1 -15 -3 -13 -6 3 -2 -19 -20 -48 -40 -172 -116 -273 -307 -284 -537 -10 -209 42 -351 181 -490 124 -124 269 -188 457 -201 147 -10 269 22 559 145 238 102 317 123 475 129 154 6 250 -13 375 -74 97 -47 219 -167 273 -268 21 -38 35 -59 31 -45 -11 42 -54 122 -99 185 -63 87 -1087 1105 -1156 1148 -66 42 -152 79 -234 101 -71 19 -251 29 -315 16z"/>
 <path d="M996 3190 c22 -117 84 -233 187 -351 111 -126 994 -1000 1052 -1041 128 -91 262 -138 421 -145 149 -7 227 7 340 63 173 85 286 218 346 408 28 87 35 269 14 366 -61 293 -343 504 -671 504 -139 -1 -233 -27 -497 -140 -330 -141 -488 -167 -708 -117 -36 8 -103 32 -149 54 -67 31 -98 54 -160 116 -80 82 -119 144 -158 252 -13 36 -20 50 -17 31z"/>
 <path d="M2621 1572 c-22 -54 -158 -223 -307 -384 -135 -145 -444 -448 -444 -435 0 3 39 47 86 99 261 282 399 484 438 639 25 103 26 102 -41 94 -32 -4 -110 -20 -173 -37 -404 -103 -733 -372 -919 -753 -107 -220 -162 -427 -187 -702 l-6 -73 89 0 c186 0 433 47 608 117 503 199 798 631 870 1278 l7 60 23 -90 c67 -262 169 -450 324 -597 171 -162 421 -257 651 -246 l65 3 -2 103 c-5 349 -192 636 -523 806 -147 75 -309 122 -491 140 -55 6 -57 5 -68 -22z"/>
 </g>
<g id="layer104" fill="#ff0000" stroke="none">
 <path d="M2580 5110 c-25 -4 -76 -20 -115 -35 -38 -15 -78 -27 -87 -28 -9 -1 -15 -3 -13 -6 3 -2 -19 -20 -48 -40 -172 -116 -273 -307 -284 -537 -10 -209 42 -351 181 -490 124 -124 269 -188 457 -201 147 -10 269 22 559 145 238 102 317 123 475 129 154 6 250 -13 375 -74 97 -47 219 -167 273 -268 21 -38 35 -59 31 -45 -11 42 -54 122 -99 185 -63 87 -1087 1105 -1156 1148 -66 42 -152 79 -234 101 -71 19 -251 29 -315 16z"/>
 <path d="M996 3190 c22 -117 84 -233 187 -351 111 -126 994 -1000 1052 -1041 128 -91 262 -138 421 -145 149 -7 227 7 340 63 173 85 286 218 346 408 28 87 35 269 14 366 -61 293 -343 504 -671 504 -139 -1 -233 -27 -497 -140 -330 -141 -488 -167 -708 -117 -36 8 -103 32 -149 54 -67 31 -98 54 -160 116 -80 82 -119 144 -158 252 -13 36 -20 50 -17 31z"/>
 </g>

</svg>